{
  "key": "user-app-key",
  "dependencies": {},
  "name": "User Reference App",
  "description": "An app demonstrating user module capabilities.",
  "vendor": {
    "name": "Atlassian",
    "url": "http://www.atlassian.com"
  },
  "baseUrl": "https://acjsrefapp.atl-paas.net",
  "authentication": {
    "type": "none"
  },
  "enableLicensing": false,
  "scopes": [
    "read"
  ],
  "modules": {
    "generalPages": [
      {
        "key": "user-app-general-page",
        "url": "/?data-options=sizeToParent:true;resize:true/#/app/user-app/",
        "name": {
          "value": "User Reference App"
        },
        "location": "system.space.sidebar/main-links",
        "icon": {
          "width": 80,
          "height": 80,
          "url": "/ACJS.png"
        }
      }
    ]
  }
}